^C:\USERS\ROBERTO\SOURCE\REPOS\BASPRG2 EXERCISE\BASPRG2 EXERCISE\EXERCISE.CPP
C:\USERS\ROBERTO\SOURCE\REPOS\BASPRG2 EXERCISE\BASPRG2 EXERCISE\DEBUG\VC141.PDB
C:\USERS\ROBERTO\SOURCE\REPOS\BASPRG2 EXERCISE\BASPRG2 EXERCISE\DEBUG\VC141.IDB
C:\USERS\ROBERTO\SOURCE\REPOS\BASPRG2 EXERCISE\BASPRG2 EXERCISE\DEBUG\EXERCISE.OBJ
